…
也可以使用代码来进行导入，需要使用的程序包是readxl程序包，但是readxl程序包并不是R软件自带的：

```R
install.packages("readxl")
library("readxl")
```

接着开始导入：

```R
> mydata_excel <- read_excel("excel_data_input.xls")
> mydata_excel
# A tibble: 115 × 52
   学生编号  性别  专业  年级  家乡    Q1    Q2    Q3    Q4    Q5    Q6
      <dbl> <dbl> <dbl> <dbl> <dbl> <dbl> <dbl> <dbl> <dbl> <dbl> <dbl>
 1        1     1     5     3     2     4     5     4     4     4     4
 2        2     1     5     2     1     4     4     4     4     4     5
 3        3     2     1     2     2     2     3     4     3     4     3
 4        4     1     4     2     2     4     5     2     2     3     3
 5        5     2     1     2     4     2     2     3     3     2     2
 6        6     2     4     3     3     1     2     4     4     4     5
 7        7     1     4     2     2     5     4     4     4     5     4
 8        8     1     3     2     2     4     4     4     4     4     5
 9        9     2     3     2     3     2     1     4     4     4     4
10       10     1     3     2     5     4     2     2     2     3     2
# ℹ 105 more rows
# ℹ 41 more variables: Q7 <dbl>, Q8 <dbl>, Q9 <dbl>, Q10 <dbl>, Q11 <dbl>,
#   Q12 <dbl>, Q13 <dbl>, Q14 <dbl>, Q15 <dbl>, Q16 <dbl>, Q17 <dbl>,
#   Q18 <dbl>, Q19 <dbl>, Q20 <dbl>, M1 <dbl>, M2 <dbl>, M3 <dbl>,
#   M4 <dbl>, M5 <dbl>, M6 <dbl>, M7 <dbl>, M8 <dbl>, M9 <dbl>, M10 <dbl>,
#   M11 <dbl>, M12 <dbl>, M13 <dbl>, M14 <dbl>, M15 <dbl>, M16 <dbl>,
#   M17 <dbl>, M18 <dbl>, M19 <dbl>, M20 <dbl>, M21 <dbl>, M22 <dbl>, …
# ℹ Use `print(n = ...)` to see more rows
```
…
## 导入spss格式的数据

```R
> # 导入spss格式的数据
> library("haven")
Warning message:
package ‘haven’ was built under R version 4.2.3 
> mydata_spss <- read_sav("spss_data_input.sav")
> mydata_spss
# A tibble: 115 × 52
   学生编号 性别      专业     年级    家乡       Q1    Q2    Q3    Q4    Q5
      <dbl> <dbl+lbl> <dbl+lb> <dbl+l> <dbl+l> <dbl> <dbl> <dbl> <dbl> <dbl>
 1        1 1 [男]    5 [工学… 3 [研… 2 [镇]…     4     5     4     4     4
 2        2 1 [男]    5 [工学… 2 [研… 1 [农…     4     4     4     4     4
 3        3 2 [女]    1 [教育… 2 [研… 2 [镇]…     2     3     4     3     4
 4        4 1 [男]    4 [理学… 2 [研… 2 [镇]…     4     5     2     2     3
 5        5 2 [女]    1 [教育… 2 [研… 4 [县…     2     2     3     3     2
 6        6 2 [女]    4 [理学… 3 [研… 3 [县…     1     2     4     4     4
 7        7 1 [男]    4 [理学… 2 [研… 2 [镇]…     5     4     4     4     5
 8        8 1 [男]    3 [管理… 2 [研… 2 [镇]…     4     4     4     4     4
 9        9 2 [女]    3 [管理… 2 [研… 3 [县…     2     1     4     4     4
10       10 1 [男]    3 [管理… 2 [研… 5     …     4     2     2     2     3
# ℹ 105 more rows
# ℹ 42 more variables: Q6 <dbl>, Q7 <dbl>, Q8 <dbl>, Q9 <dbl>, Q10 <dbl>,
#   Q11 <dbl>, Q12 <dbl>, Q13 <dbl>, Q14 <dbl>, Q15 <dbl>, Q16 <dbl>,
#   Q17 <dbl>, Q18 <dbl>, Q19 <dbl>, Q20 <dbl>, M1 <dbl>, M2 <dbl>,
#   M3 <dbl>, M4 <dbl>, M5 <dbl>, M6 <dbl>, M7 <dbl>, M8 <dbl>, M9 <dbl>,
#   M10 <dbl>, M11 <dbl>, M12 <dbl>, M13 <dbl>, M14 <dbl>, M15 <dbl>,
#   M16 <dbl>, M17 <dbl>, M18 <dbl>, M19 <dbl>, M20 <dbl>, M21 <dbl>, …
# ℹ Use `print(n = ...)` to see more rows
```
