…
x_vector_2 <- c(1, 2, "3", "4", "5")
typeof(x_vector_2)
```

## 查找

导入一个数据集：

```R
> library(readxl)
> data_str <- read_xlsx("string_data.xlsx")
> data_str
# A tibble: 90 × 9
    排序 姓名编号     身份证号     性别  职业  婚姻状况 血型    BMI 饮食偏好
   <dbl> <chr>        <chr>        <chr> <chr> <chr>    <chr> <dbl> <chr>   
 1     1 张三12535    13030119951… 男    个体… 未婚     O      25.7 高脂肪… 
 2     2 李四1178536  13030120021… 女    NA    已婚     B      24.7 粗纤维… 
 3     3 张莎莎152    13030119931… 男    工人  已婚     A      29.1 粗纤维… 
 4     4 张静20123692 13030119841… 女    离退… 已婚     A      27.3 粗纤维… 
 5     5 张兰1025     13030119971… 男    离退… 已婚     AB     30.1 NA      
 6     6 李慧爱1023   13030119871… 男    离退… 已婚     B      27.7 高脂肪… 
 7     7 李丽莎201    13030119951… 女    离退… 已婚     O      24.6 NA      
 8     8 王五178      13030119951… 男    农民  已婚     B      30.4 粗纤维… 
 9     9 王来凤152    13030119901… 男    农民  已婚     B      21.0 NA      
10    10 王珊珊3699   13030119831… 女    离退… 已婚     O      22.1 粗纤维… 
# ℹ 80 more rows
# ℹ Use `print(n = ...)` to see more rows
```
…
